digraph "/Users/jlafond/Projects/VMWare/SampleCode/AWNTest/AWNTest/AWNNetwork/AWNNCommandOperation.h"
{
  edge [fontname="Helvetica",fontsize="10",labelfontname="Helvetica",labelfontsize="10"];
  node [fontname="Helvetica",fontsize="10",shape=record];
  Node1 [label="/Users/jlafond/Projects\l/VMWare/SampleCode/AWNTest\l/AWNTest/AWNNetwork/AWNNCommandOperation.h",height=0.2,width=0.4,color="black", fillcolor="grey75", style="filled" fontcolor="black"];
  Node1 -> Node2 [dir="back",color="midnightblue",fontsize="10",style="solid",fontname="Helvetica"];
  Node2 [label="/Users/jlafond/Projects\l/VMWare/SampleCode/AWNTest\l/AWNTest/AWNNetwork/AWNNCommandManager.m",height=0.2,width=0.4,color="black", fillcolor="white", style="filled",URL="$_a_w_n_n_command_manager_8m.html"];
  Node1 -> Node3 [dir="back",color="midnightblue",fontsize="10",style="solid",fontname="Helvetica"];
  Node3 [label="/Users/jlafond/Projects\l/VMWare/SampleCode/AWNTest\l/AWNTest/AWNNetwork/AWNNCommandOperation.m",height=0.2,width=0.4,color="black", fillcolor="white", style="filled",URL="$_a_w_n_n_command_operation_8m.html"];
}
