digraph "AWNNCommandManager()"
{
  edge [fontname="Helvetica",fontsize="10",labelfontname="Helvetica",labelfontsize="10"];
  node [fontname="Helvetica",fontsize="10",shape=record];
  rankdir="LR";
  Node1 [label="AWNNCommandManager()",height=0.2,width=0.4,color="black", fillcolor="grey75", style="filled" fontcolor="black"];
  Node2 -> Node1 [dir="back",color="midnightblue",fontsize="10",style="solid",fontname="Helvetica"];
  Node2 [label="\<AWNNCommandManagerProtocol\>",height=0.2,width=0.4,color="black", fillcolor="white", style="filled",URL="$protocol_a_w_n_n_command_manager_protocol-p.html",tooltip="Manager functionality so that the can better manage authentication challenges and manage the list of ..."];
  Node3 -> Node2 [dir="back",color="midnightblue",fontsize="10",style="solid",fontname="Helvetica"];
  Node3 [label="\<NSObject\>",height=0.2,width=0.4,color="grey75", fillcolor="white", style="filled"];
  Node4 -> Node1 [dir="back",color="midnightblue",fontsize="10",style="solid",fontname="Helvetica"];
  Node4 [label="\<NSURLSessionDelegate\>",height=0.2,width=0.4,color="grey75", fillcolor="white", style="filled"];
  Node5 -> Node1 [dir="back",color="midnightblue",fontsize="10",style="solid",fontname="Helvetica"];
  Node5 [label="\<NSURLSessionTaskDelegate\>",height=0.2,width=0.4,color="grey75", fillcolor="white", style="filled"];
  Node6 -> Node1 [dir="back",color="midnightblue",fontsize="10",style="solid",fontname="Helvetica"];
  Node6 [label="\<NSURLSessionDataDelegate\>",height=0.2,width=0.4,color="grey75", fillcolor="white", style="filled"];
  Node7 -> Node1 [dir="back",color="midnightblue",fontsize="10",style="solid",fontname="Helvetica"];
  Node7 [label="\<NSURLSessionDownloadDelegate\>",height=0.2,width=0.4,color="grey75", fillcolor="white", style="filled"];
}
