digraph "/Users/jlafond/Projects/VMWare/SampleCode" {
  compound=true
  node [ fontsize="10", fontname="Helvetica"];
  edge [ labelfontsize="10", labelfontname="Helvetica"];
  subgraph clusterdir_be38868bcf11717c624c6c70f9d975b9 {
    graph [ bgcolor="#ddddee", pencolor="black", label="VMWare" fontname="Helvetica", fontsize="10", URL="dir_be38868bcf11717c624c6c70f9d975b9.html"]
  subgraph clusterdir_227aa4ac1da024b69f86761a9f9b906b {
    graph [ bgcolor="#eeeeff", pencolor="black", label="" URL="dir_227aa4ac1da024b69f86761a9f9b906b.html"];
    dir_227aa4ac1da024b69f86761a9f9b906b [shape=plaintext label="SampleCode"];
    dir_c33b82dba992525b388be29bb07daddb [shape=box label="AWNTest" color="red" fillcolor="white" style="filled" URL="dir_c33b82dba992525b388be29bb07daddb.html"];
  }
  }
}
